{
  "black": {
    "$value": "#000",
    "$type": "color",
    "themeable": true
  },
  "white": {
    "$value": "#fff",
    "$type": "color",
    "themeable": true
  },
  "blue": {
    "50": {
      "$value": "#e9f3fc",
      "$type": "color",
      "themeable": true
    },
    "100": {
      "$value": "#cbe2f9",
      "$type": "color",
      "themeable": true
    },
    "200": {
      "$value": "#9dc7f1",
      "$type": "color",
      "themeable": true
    },
    "300": {
      "$value": "#63a6e9",
      "$type": "color",
      "themeable": true
    },
    "400": {
      "$value": "#428fdc",
      "$type": "color",
      "themeable": true
    },
    "500": {
      "$value": "#1f75cb",
      "$type": "color",
      "themeable": true
    },
    "600": {
      "$value": "#1068bf",
      "$type": "color",
      "themeable": true
    },
    "700": {
      "$value": "#0b5cad",
      "$type": "color",
      "themeable": true
    },
    "800": {
      "$value": "#064787",
      "$type": "color",
      "themeable": true
    },
    "900": {
      "$value": "#033464",
      "$type": "color",
      "themeable": true
    },
    "950": {
      "$value": "#002850",
      "$type": "color",
      "themeable": true
    }
  },
  "gray": {
    "10": {
      "$value": "#fbfafd",
      "$type": "color",
      "themeable": true
    },
    "50": {
      "$value": "#ececef",
      "$type": "color",
      "themeable": true
    },
    "100": {
      "$value": "#dcdcde",
      "$type": "color",
      "themeable": true
    },
    "200": {
      "$value": "#bfbfc3",
      "$type": "color",
      "themeable": true
    },
    "300": {
      "$value": "#a4a3a8",
      "$type": "color",
      "themeable": true
    },
    "400": {
      "$value": "#89888d",
      "$type": "color",
      "themeable": true
    },
    "500": {
      "$value": "#737278",
      "$type": "color",
      "themeable": true
    },
    "600": {
      "$value": "#626168",
      "$type": "color",
      "themeable": true
    },
    "700": {
      "$value": "#535158",
      "$type": "color",
      "themeable": true
    },
    "800": {
      "$value": "#434248",
      "$type": "color",
      "themeable": true
    },
    "900": {
      "$value": "#333238",
      "$type": "color",
      "themeable": true
    },
    "950": {
      "$value": "#1f1e24",
      "$type": "color",
      "themeable": true
    }
  },
  "green": {
    "50": {
      "$value": "#ecf4ee",
      "$type": "color",
      "themeable": true
    },
    "100": {
      "$value": "#c3e6cd",
      "$type": "color",
      "themeable": true
    },
    "200": {
      "$value": "#91d4a8",
      "$type": "color",
      "themeable": true
    },
    "300": {
      "$value": "#52b87a",
      "$type": "color",
      "themeable": true
    },
    "400": {
      "$value": "#2da160",
      "$type": "color",
      "themeable": true
    },
    "500": {
      "$value": "#108548",
      "$type": "color",
      "themeable": true
    },
    "600": {
      "$value": "#217645",
      "$type": "color",
      "themeable": true
    },
    "700": {
      "$value": "#24663b",
      "$type": "color",
      "themeable": true
    },
    "800": {
      "$value": "#0d532a",
      "$type": "color",
      "themeable": true
    },
    "900": {
      "$value": "#0a4020",
      "$type": "color",
      "themeable": true
    },
    "950": {
      "$value": "#072b15",
      "$type": "color",
      "themeable": true
    }
  },
  "orange": {
    "50": {
      "$value": "#fdf1dd",
      "$type": "color",
      "themeable": true
    },
    "100": {
      "$value": "#f5d9a8",
      "$type": "color",
      "themeable": true
    },
    "200": {
      "$value": "#e9be74",
      "$type": "color",
      "themeable": true
    },
    "300": {
      "$value": "#d99530",
      "$type": "color",
      "themeable": true
    },
    "400": {
      "$value": "#c17d10",
      "$type": "color",
      "themeable": true
    },
    "500": {
      "$value": "#ab6100",
      "$type": "color",
      "themeable": true
    },
    "600": {
      "$value": "#9e5400",
      "$type": "color",
      "themeable": true
    },
    "700": {
      "$value": "#8f4700",
      "$type": "color",
      "themeable": true
    },
    "800": {
      "$value": "#703800",
      "$type": "color",
      "themeable": true
    },
    "900": {
      "$value": "#5c2900",
      "$type": "color",
      "themeable": true
    },
    "950": {
      "$value": "#421f00",
      "$type": "color",
      "themeable": true
    }
  },
  "purple": {
    "50": {
      "$value": "#f4f0ff",
      "$type": "color",
      "themeable": true
    },
    "100": {
      "$value": "#e1d8f9",
      "$type": "color",
      "themeable": true
    },
    "200": {
      "$value": "#cbbbf2",
      "$type": "color",
      "themeable": true
    },
    "300": {
      "$value": "#ac93e6",
      "$type": "color",
      "themeable": true
    },
    "400": {
      "$value": "#9475db",
      "$type": "color",
      "themeable": true
    },
    "500": {
      "$value": "#7b58cf",
      "$type": "color",
      "themeable": true
    },
    "600": {
      "$value": "#694cc0",
      "$type": "color",
      "themeable": true
    },
    "700": {
      "$value": "#5943b6",
      "$type": "color",
      "themeable": true
    },
    "800": {
      "$value": "#453894",
      "$type": "color",
      "themeable": true
    },
    "900": {
      "$value": "#2f2a6b",
      "$type": "color",
      "themeable": true
    },
    "950": {
      "$value": "#232150",
      "$type": "color",
      "themeable": true
    }
  },
  "red": {
    "50": {
      "$value": "#fcf1ef",
      "$type": "color",
      "themeable": true
    },
    "100": {
      "$value": "#fdd4cd",
      "$type": "color",
      "themeable": true
    },
    "200": {
      "$value": "#fcb5aa",
      "$type": "color",
      "themeable": true
    },
    "300": {
      "$value": "#f57f6c",
      "$type": "color",
      "themeable": true
    },
    "400": {
      "$value": "#ec5941",
      "$type": "color",
      "themeable": true
    },
    "500": {
      "$value": "#dd2b0e",
      "$type": "color",
      "themeable": true
    },
    "600": {
      "$value": "#c91c00",
      "$type": "color",
      "themeable": true
    },
    "700": {
      "$value": "#ae1800",
      "$type": "color",
      "themeable": true
    },
    "800": {
      "$value": "#8d1300",
      "$type": "color",
      "themeable": true
    },
    "900": {
      "$value": "#660e00",
      "$type": "color",
      "themeable": true
    },
    "950": {
      "$value": "#4d0a00",
      "$type": "color",
      "themeable": true
    }
  },
  "data-viz": {
    "green": {
      "50": {
        "$value": "#ddfab7",
        "$type": "color",
        "themeable": true
      },
      "100": {
        "$value": "#c6ed94",
        "$type": "color",
        "themeable": true
      },
      "200": {
        "$value": "#b0d97b",
        "$type": "color",
        "themeable": true
      },
      "300": {
        "$value": "#94c25e",
        "$type": "color",
        "themeable": true
      },
      "400": {
        "$value": "#81ac41",
        "$type": "color",
        "themeable": true
      },
      "500": {
        "$value": "#619025",
        "$type": "color",
        "themeable": true
      },
      "600": {
        "$value": "#4e7f0e",
        "$type": "color",
        "themeable": true
      },
      "700": {
        "$value": "#366800",
        "$type": "color",
        "themeable": true
      },
      "800": {
        "$value": "#275600",
        "$type": "color",
        "themeable": true
      },
      "900": {
        "$value": "#1a4500",
        "$type": "color",
        "themeable": true
      },
      "950": {
        "$value": "#133a03",
        "$type": "color",
        "themeable": true
      }
    },
    "aqua": {
      "50": {
        "$value": "#b5fefd",
        "$type": "color",
        "themeable": true
      },
      "100": {
        "$value": "#93f2ef",
        "$type": "color",
        "themeable": true
      },
      "200": {
        "$value": "#5edee3",
        "$type": "color",
        "themeable": true
      },
      "300": {
        "$value": "#32c5d2",
        "$type": "color",
        "themeable": true
      },
      "400": {
        "$value": "#00acc4",
        "$type": "color",
        "themeable": true
      },
      "500": {
        "$value": "#0090b1",
        "$type": "color",
        "themeable": true
      },
      "600": {
        "$value": "#007b9b",
        "$type": "color",
        "themeable": true
      },
      "700": {
        "$value": "#006381",
        "$type": "color",
        "themeable": true
      },
      "800": {
        "$value": "#00516c",
        "$type": "color",
        "themeable": true
      },
      "900": {
        "$value": "#004059",
        "$type": "color",
        "themeable": true
      },
      "950": {
        "$value": "#00344b",
        "$type": "color",
        "themeable": true
      }
    },
    "blue": {
      "50": {
        "$value": "#e9ebff",
        "$type": "color",
        "themeable": true
      },
      "100": {
        "$value": "#d2dcff",
        "$type": "color",
        "themeable": true
      },
      "200": {
        "$value": "#b7c6ff",
        "$type": "color",
        "themeable": true
      },
      "300": {
        "$value": "#97acff",
        "$type": "color",
        "themeable": true
      },
      "400": {
        "$value": "#7992f5",
        "$type": "color",
        "themeable": true
      },
      "500": {
        "$value": "#617ae2",
        "$type": "color",
        "themeable": true
      },
      "600": {
        "$value": "#4e65cd",
        "$type": "color",
        "themeable": true
      },
      "700": {
        "$value": "#3f51ae",
        "$type": "color",
        "themeable": true
      },
      "800": {
        "$value": "#374291",
        "$type": "color",
        "themeable": true
      },
      "900": {
        "$value": "#303470",
        "$type": "color",
        "themeable": true
      },
      "950": {
        "$value": "#2a2b59",
        "$type": "color",
        "themeable": true
      }
    },
    "magenta": {
      "50": {
        "$value": "#ffe3eb",
        "$type": "color",
        "themeable": true
      },
      "100": {
        "$value": "#ffccdb",
        "$type": "color",
        "themeable": true
      },
      "200": {
        "$value": "#fcacc5",
        "$type": "color",
        "themeable": true
      },
      "300": {
        "$value": "#f88aaf",
        "$type": "color",
        "themeable": true
      },
      "400": {
        "$value": "#e86e9a",
        "$type": "color",
        "themeable": true
      },
      "500": {
        "$value": "#cf4d81",
        "$type": "color",
        "themeable": true
      },
      "600": {
        "$value": "#b93d71",
        "$type": "color",
        "themeable": true
      },
      "700": {
        "$value": "#9a2e5d",
        "$type": "color",
        "themeable": true
      },
      "800": {
        "$value": "#7c214f",
        "$type": "color",
        "themeable": true
      },
      "900": {
        "$value": "#661e3a",
        "$type": "color",
        "themeable": true
      },
      "950": {
        "$value": "#541d31",
        "$type": "color",
        "themeable": true
      }
    },
    "orange": {
      "50": {
        "$value": "#fae8d1",
        "$type": "color",
        "themeable": true
      },
      "100": {
        "$value": "#f5d6b3",
        "$type": "color",
        "themeable": true
      },
      "200": {
        "$value": "#eebd8c",
        "$type": "color",
        "themeable": true
      },
      "300": {
        "$value": "#e99b60",
        "$type": "color",
        "themeable": true
      },
      "400": {
        "$value": "#e07e41",
        "$type": "color",
        "themeable": true
      },
      "500": {
        "$value": "#c95d2e",
        "$type": "color",
        "themeable": true
      },
      "600": {
        "$value": "#b14f18",
        "$type": "color",
        "themeable": true
      },
      "700": {
        "$value": "#92430a",
        "$type": "color",
        "themeable": true
      },
      "800": {
        "$value": "#6f3500",
        "$type": "color",
        "themeable": true
      },
      "900": {
        "$value": "#5e2f05",
        "$type": "color",
        "themeable": true
      },
      "950": {
        "$value": "#4b2707",
        "$type": "color",
        "themeable": true
      }
    }
  },
  "brand": {
    "charcoal": {
      "$value": "#171321",
      "$type": "color",
      "themeable": true
    },
    "orange": {
      "01": {
        "$value": "#fca326",
        "$type": "color",
        "themeable": true
      },
      "02": {
        "$value": "#fc6d26",
        "$type": "color",
        "themeable": true
      },
      "03": {
        "$value": "#e24329",
        "$type": "color",
        "themeable": true
      }
    },
    "purple": {
      "01": {
        "$value": "#a989f5",
        "$type": "color",
        "themeable": true
      },
      "02": {
        "$value": "#7759c2",
        "$type": "color",
        "themeable": true
      }
    },
    "gray": {
      "01": {
        "$value": "#d1d0d3",
        "$type": "color",
        "themeable": true
      },
      "02": {
        "$value": "#a2a1a6",
        "$type": "color",
        "themeable": true
      },
      "03": {
        "$value": "#74717a",
        "$type": "color",
        "themeable": true
      },
      "04": {
        "$value": "#45424d",
        "$type": "color",
        "themeable": true
      },
      "05": {
        "$value": "#2b2838",
        "$type": "color",
        "themeable": true
      }
    }
  }
}
